sfnetworks: Tidy Geospatial Networks in R
…
## <span style="color:#ffa500">Tidy</span> <span style="color:#b3b3b3">Geospatial Networks</span> <span style="color:#ffa500">in R</span>

.left[
.pull-left-60[

```r
library(tidyverse)
library(sfnetworks)
roxel %>%
  as_tibble() %>%
  select(name, type)
```

```
# A tibble: 851 x 2
   name                  type       
   <chr>                 <fct>      
 1 Havixbecker Strasse   residential
 2 Pienersallee          secondary  
 3 Schulte-Bernd-Strasse residential
 4 <NA>                  path       
 5 Welsingheide          residential
 6 <NA>                  footway    
 7 <NA>                  footway    
 8 <NA>                  path       
 9 <NA>                  track      
10 <NA>                  track      
# ... with 841 more rows
```
…
